tb/sim.log
Chronologic VCS simulator copyright 1991-2014
Contains Synopsys proprietary information.
Compiler version I-2014.03; Runtime version I-2014.03;  Dec  7 20:29 2014
----------------------------------------------------------------
UVM-1.1d.VCS
(C) 2007-2013 Mentor Graphics Corporation
(C) 2007-2013 Cadence Design Systems, Inc.
(C) 2006-2013 Synopsys, Inc.
(C) 2011-2013 Cypress Semiconductor Corp.
----------------------------------------------------------------

  ***********       IMPORTANT RELEASE NOTES         ************

  You are using a version of the UVM library that has been compiled
  with `UVM_NO_DEPRECATED undefined.
  See http://www.eda.org/svdb/view.php?id=3313 for more details.

  You are using a version of the UVM library that has been compiled
  with `UVM_OBJECT_MUST_HAVE_CONSTRUCTOR undefined.
  See http://www.eda.org/svdb/view.php?id=3770 for more details.

      (Specify +UVM_NO_RELNOTES to turn off this notice)


 VCS Coverage Metrics Release I-2014.03 Copyright (c) 1991-2014 by Synopsys Inc.
UVM_INFO @ 0: reporter [RNTST] Running test memory_test...
UVM_INFO @ 0: reporter [TIMOUTSET] '+UVM_TIMEOUT=92000' provided on the command line is being applied.
TESTER: putting command: A: 00000006  B: 064d911b sv: 0 op_pf: 1 op: 08

TESTER: putting command: A: 00000001  B: bd423ba3 sv: 0 op_pf: 0 op: 04

UVM_INFO ./components/driver.svh(33) @ 0: uvm_test_top.env.driver_h [driver] reset command
UVM_INFO ./components/driver.svh(35) @ 60: uvm_test_top.env.driver_h [driver] bfm.done = 0
TESTER: putting command: A: 00000006  B: dae0b86e sv: 0 op_pf: 0 op: 04

waiting for done signale from DUT
waiting for done signale from DUT
waiting for done signale from DUT
waiting for done signale from DUT
waiting for done signale from DUT
waiting for done signale from DUT
DUT signaled DONE!
result =                    0
TESTER: putting command: A: 00000009  B: a7318d88 sv: 0 op_pf: 1 op: 07

UVM_INFO ./monitors/result_monitor.svh(31) @ 230: uvm_test_top.env.result_monitor_h [result monitor] bfm done
UVM_INFO ./components/scoreboard.svh(141) @ 230: uvm_test_top.env.scoreboard_h [SELF CHECKER] PASS: A: 00000006  B: 064d911b sv: 0 op_pf: 1 op: 08 ==>  Actual result: 0000000000000000/Predicted result: 0000000000000000
waiting for done signale from DUT
waiting for done signale from DUT
waiting for done signale from DUT
ecs_alu_op=04, edr_alu_A=00000001, edr_alu_B=bd423ba3, idr_alu_res=0000000000000000
waiting for done signale from DUT
waiting for done signale from DUT
waiting for done signale from DUT
DUT signaled DONE!
result =           3175234467
TESTER: putting command: A: 0000000a  B: 0984342b sv: 0 op_pf: 1 op: 01

UVM_INFO ./monitors/result_monitor.svh(31) @ 390: uvm_test_top.env.result_monitor_h [result monitor] bfm done
UVM_ERROR ./components/scoreboard.svh(139) @ 390: uvm_test_top.env.scoreboard_h [SELF CHECKER] FAIL: A: 00000001  B: bd423ba3 sv: 0 op_pf: 0 op: 04 ==>  Actual result: 00000000bd423ba3/Predicted result: ffffffffbd423ba3
waiting for done signale from DUT
waiting for done signale from DUT
waiting for done signale from DUT
ecs_alu_op=04, edr_alu_A=00000006, edr_alu_B=dae0b86e, idr_alu_res=00000000bd423ba3
waiting for done signale from DUT
waiting for done signale from DUT
waiting for done signale from DUT
DUT signaled DONE!
result =           3672160366
TESTER: putting command: A: 00000003  B: 3bddbc84 sv: 0 op_pf: 1 op: 07

UVM_INFO ./monitors/result_monitor.svh(31) @ 550: uvm_test_top.env.result_monitor_h [result monitor] bfm done
UVM_ERROR ./components/scoreboard.svh(139) @ 550: uvm_test_top.env.scoreboard_h [SELF CHECKER] FAIL: A: 00000006  B: dae0b86e sv: 0 op_pf: 0 op: 04 ==>  Actual result: 00000000dae0b86e/Predicted result: ffffffffdae0b86e
waiting for done signale from DUT
waiting for done signale from DUT
waiting for done signale from DUT
waiting for done signale from DUT
waiting for done signale from DUT
waiting for done signale from DUT
DUT signaled DONE!
result =           2805042568
TESTER: putting command: A: 0000000a  B: 1f8e49bb sv: 0 op_pf: 1 op: 09

UVM_INFO ./monitors/result_monitor.svh(31) @ 710: uvm_test_top.env.result_monitor_h [result monitor] bfm done
UVM_ERROR ./components/scoreboard.svh(139) @ 710: uvm_test_top.env.scoreboard_h [SELF CHECKER] FAIL: A: 00000009  B: a7318d88 sv: 0 op_pf: 1 op: 07 ==>  Actual result: 00000000a7318d88/Predicted result: 0000000000000000
waiting for done signale from DUT
waiting for done signale from DUT
waiting for done signale from DUT
waiting for done signale from DUT
waiting for done signale from DUT
waiting for done signale from DUT
DUT signaled DONE!
result =            159659051
TESTER: putting command: A: 00000004  B: 94eff9cf sv: 0 op_pf: 0 op: 05

UVM_INFO ./monitors/result_monitor.svh(31) @ 870: uvm_test_top.env.result_monitor_h [result monitor] bfm done
UVM_INFO ./components/scoreboard.svh(141) @ 870: uvm_test_top.env.scoreboard_h [SELF CHECKER] PASS: A: 0000000a  B: 0984342b sv: 0 op_pf: 1 op: 01 ==>  Actual result: 000000000984342b/Predicted result: 000000000984342b
waiting for done signale from DUT
waiting for done signale from DUT
waiting for done signale from DUT
waiting for done signale from DUT
waiting for done signale from DUT
waiting for done signale from DUT
DUT signaled DONE!
result =           1004387460
TESTER: putting command: A: 00000003  B: fffe5003 sv: 0 op_pf: 1 op: 09

UVM_INFO ./monitors/result_monitor.svh(31) @ 1030: uvm_test_top.env.result_monitor_h [result monitor] bfm done
UVM_ERROR ./components/scoreboard.svh(139) @ 1030: uvm_test_top.env.scoreboard_h [SELF CHECKER] FAIL: A: 00000003  B: 3bddbc84 sv: 0 op_pf: 1 op: 07 ==>  Actual result: 000000003bddbc84/Predicted result: 0000000000000000
waiting for done signale from DUT
waiting for done signale from DUT
waiting for done signale from DUT
waiting for done signale from DUT
waiting for done signale from DUT
waiting for done signale from DUT
DUT signaled DONE!
result =                    0
TESTER: putting command: A: 00000007  B: 5a75ef20 sv: 1 op_pf: 1 op: 07

UVM_INFO ./monitors/result_monitor.svh(31) @ 1190: uvm_test_top.env.result_monitor_h [result monitor] bfm done
UVM_INFO ./components/scoreboard.svh(141) @ 1190: uvm_test_top.env.scoreboard_h [SELF CHECKER] PASS: A: 0000000a  B: 1f8e49bb sv: 0 op_pf: 1 op: 09 ==>  Actual result: 0000000000000000/Predicted result: 0000000000000000
waiting for done signale from DUT
waiting for done signale from DUT
waiting for done signale from DUT
ecs_alu_op=05, edr_alu_A=00000004, edr_alu_B=94eff9cf, idr_alu_res=00000000dae0b86e
waiting for done signale from DUT
waiting for done signale from DUT
waiting for done signale from DUT
DUT signaled DONE!
result =           2498755019
TESTER: putting command: A: 00000008  B: 079fa480 sv: 0 op_pf: 1 op: 09

UVM_INFO ./monitors/result_monitor.svh(31) @ 1350: uvm_test_top.env.result_monitor_h [result monitor] bfm done
UVM_ERROR ./components/scoreboard.svh(139) @ 1350: uvm_test_top.env.scoreboard_h [SELF CHECKER] FAIL: A: 00000004  B: 94eff9cf sv: 0 op_pf: 0 op: 05 ==>  Actual result: 0000000094eff9cb/Predicted result: ffffffff94eff9cb
waiting for done signale from DUT
waiting for done signale from DUT
waiting for done signale from DUT
waiting for done signale from DUT
waiting for done signale from DUT
waiting for done signale from DUT
DUT signaled DONE!
result =                    0
TESTER: putting command: A: 00000008  B: 45ada24b sv: 0 op_pf: 0 op: 0a

UVM_INFO ./monitors/result_monitor.svh(31) @ 1510: uvm_test_top.env.result_monitor_h [result monitor] bfm done
UVM_INFO ./components/scoreboard.svh(141) @ 1510: uvm_test_top.env.scoreboard_h [SELF CHECKER] PASS: A: 00000003  B: fffe5003 sv: 0 op_pf: 1 op: 09 ==>  Actual result: 0000000000000000/Predicted result: 0000000000000000
waiting for done signale from DUT
waiting for done signale from DUT
waiting for done signale from DUT
waiting for done signale from DUT
ecs_alu_op=07, edr_alu_A=00000000, edr_alu_B=5a75ef20, idr_alu_res=0000000094eff9cb
waiting for done signale from DUT
waiting for done signale from DUT
DUT signaled DONE!
result =                    0
TESTER: putting command: A: 00000008  B: 5dfe364b sv: 0 op_pf: 1 op: 09

UVM_INFO ./monitors/result_monitor.svh(31) @ 1670: uvm_test_top.env.result_monitor_h [result monitor] bfm done
UVM_INFO ./components/scoreboard.svh(141) @ 1670: uvm_test_top.env.scoreboard_h [SELF CHECKER] PASS: A: 00000007  B: 5a75ef20 sv: 1 op_pf: 1 op: 07 ==>  Actual result: 0000000000000000/Predicted result: 0000000000000000
waiting for done signale from DUT
waiting for done signale from DUT
waiting for done signale from DUT
waiting for done signale from DUT
waiting for done signale from DUT
waiting for done signale from DUT
DUT signaled DONE!
result =                    0
TESTER: putting command: A: 0000000a  B: 8c1a2ca8 sv: 0 op_pf: 0 op: 03

UVM_INFO ./monitors/result_monitor.svh(31) @ 1830: uvm_test_top.env.result_monitor_h [result monitor] bfm done
UVM_INFO ./components/scoreboard.svh(141) @ 1830: uvm_test_top.env.scoreboard_h [SELF CHECKER] PASS: A: 00000008  B: 079fa480 sv: 0 op_pf: 1 op: 09 ==>  Actual result: 0000000000000000/Predicted result: 0000000000000000
waiting for done signale from DUT
waiting for done signale from DUT
waiting for done signale from DUT
waiting for done signale from DUT
waiting for done signale from DUT
waiting for done signale from DUT
DUT signaled DONE!
result =                    0
TESTER: putting command: A: 00000004  B: a3ab8a12 sv: 0 op_pf: 1 op: 01

UVM_INFO ./monitors/result_monitor.svh(31) @ 1990: uvm_test_top.env.result_monitor_h [result monitor] bfm done
UVM_INFO ./components/scoreboard.svh(141) @ 1990: uvm_test_top.env.scoreboard_h [SELF CHECKER] PASS: A: 00000008  B: 45ada24b sv: 0 op_pf: 0 op: 0a ==>  Actual result: 0000000000000000/Predicted result: 0000000000000000
waiting for done signale from DUT
waiting for done signale from DUT
waiting for done signale from DUT
waiting for done signale from DUT
waiting for done signale from DUT
waiting for done signale from DUT
DUT signaled DONE!
result =                    0
TESTER: putting command: A: 00000005  B: 982f95a3 sv: 0 op_pf: 0 op: 02

UVM_INFO ./monitors/result_monitor.svh(31) @ 2150: uvm_test_top.env.result_monitor_h [result monitor] bfm done
UVM_INFO ./components/scoreboard.svh(141) @ 2150: uvm_test_top.env.scoreboard_h [SELF CHECKER] PASS: A: 00000008  B: 5dfe364b sv: 0 op_pf: 1 op: 09 ==>  Actual result: 0000000000000000/Predicted result: 0000000000000000
waiting for done signale from DUT
waiting for done signale from DUT
waiting for done signale from DUT
ecs_alu_op=03, edr_alu_A=0000000a, edr_alu_B=8c1a2ca8, idr_alu_res=0000000000000000
waiting for done signale from DUT
waiting for done signale from DUT
waiting for done signale from DUT
DUT signaled DONE!
result =                    8
TESTER: putting command: A: 00000000  B: 94363bd1 sv: 0 op_pf: 0 op: 04

UVM_INFO ./monitors/result_monitor.svh(31) @ 2310: uvm_test_top.env.result_monitor_h [result monitor] bfm done
UVM_INFO ./components/scoreboard.svh(141) @ 2310: uvm_test_top.env.scoreboard_h [SELF CHECKER] PASS: A: 0000000a  B: 8c1a2ca8 sv: 0 op_pf: 0 op: 03 ==>  Actual result: 0000000000000008/Predicted result: 0000000000000008
waiting for done signale from DUT
waiting for done signale from DUT
waiting for done signale from DUT
waiting for done signale from DUT
waiting for done signale from DUT
waiting for done signale from DUT
DUT signaled DONE!
result =           2745928210
TESTER: putting command: A: 00000001  B: a83df4a0 sv: 0 op_pf: 1 op: 01

UVM_INFO ./monitors/result_monitor.svh(31) @ 2470: uvm_test_top.env.result_monitor_h [result monitor] bfm done
UVM_INFO ./components/scoreboard.svh(141) @ 2470: uvm_test_top.env.scoreboard_h [SELF CHECKER] PASS: A: 00000004  B: a3ab8a12 sv: 0 op_pf: 1 op: 01 ==>  Actual result: 00000000a3ab8a12/Predicted result: 00000000a3ab8a12
waiting for done signale from DUT
waiting for done signale from DUT
waiting for done signale from DUT
ecs_alu_op=02, edr_alu_A=00000005, edr_alu_B=982f95a3, idr_alu_res=0000000000000008
waiting for done signale from DUT
waiting for done signale from DUT
waiting for done signale from DUT
DUT signaled DONE!
result =          12766276655
TESTER: putting command: A: 00000008  B: ee7a8879 sv: 0 op_pf: 1 op: 09

UVM_INFO ./monitors/result_monitor.svh(31) @ 2630: uvm_test_top.env.result_monitor_h [result monitor] bfm done
UVM_ERROR ./components/scoreboard.svh(139) @ 2630: uvm_test_top.env.scoreboard_h [SELF CHECKER] FAIL: A: 00000005  B: 982f95a3 sv: 0 op_pf: 0 op: 02 ==>  Actual result: 00000002f8edec2f/Predicted result: fffffffdf8edec2f
waiting for done signale from DUT
waiting for done signale from DUT
waiting for done signale from DUT
ecs_alu_op=04, edr_alu_A=00000000, edr_alu_B=94363bd1, idr_alu_res=00000002f8edec2f
waiting for done signale from DUT
waiting for done signale from DUT
waiting for done signale from DUT
DUT signaled DONE!
result =           2486582225
TESTER: putting command: A: 0000000a  B: 94935207 sv: 0 op_pf: 0 op: 05

UVM_INFO ./monitors/result_monitor.svh(31) @ 2790: uvm_test_top.env.result_monitor_h [result monitor] bfm done
UVM_ERROR ./components/scoreboard.svh(139) @ 2790: uvm_test_top.env.scoreboard_h [SELF CHECKER] FAIL: A: 00000000  B: 94363bd1 sv: 0 op_pf: 0 op: 04 ==>  Actual result: 0000000094363bd1/Predicted result: ffffffff94363bd1
waiting for done signale from DUT
waiting for done signale from DUT
waiting for done signale from DUT
waiting for done signale from DUT
waiting for done signale from DUT
waiting for done signale from DUT
DUT signaled DONE!
result =           2822632608
TESTER: putting command: A: 00000009  B: 52e93645 sv: 0 op_pf: 1 op: 09

UVM_INFO ./monitors/result_monitor.svh(31) @ 2950: uvm_test_top.env.result_monitor_h [result monitor] bfm done
UVM_INFO ./components/scoreboard.svh(141) @ 2950: uvm_test_top.env.scoreboard_h [SELF CHECKER] PASS: A: 00000001  B: a83df4a0 sv: 0 op_pf: 1 op: 01 ==>  Actual result: 00000000a83df4a0/Predicted result: 00000000a83df4a0
waiting for done signale from DUT
waiting for done signale from DUT
waiting for done signale from DUT
waiting for done signale from DUT
waiting for done signale from DUT
waiting for done signale from DUT
DUT signaled DONE!
result =                    0
TESTER: putting command: A: 00000001  B: 5ad64a99 sv: 0 op_pf: 1 op: 00

UVM_INFO ./monitors/result_monitor.svh(31) @ 3110: uvm_test_top.env.result_monitor_h [result monitor] bfm done
UVM_INFO ./components/scoreboard.svh(141) @ 3110: uvm_test_top.env.scoreboard_h [SELF CHECKER] PASS: A: 00000008  B: ee7a8879 sv: 0 op_pf: 1 op: 09 ==>  Actual result: 0000000000000000/Predicted result: 0000000000000000
waiting for done signale from DUT
waiting for done signale from DUT
waiting for done signale from DUT
ecs_alu_op=05, edr_alu_A=0000000a, edr_alu_B=94935207, idr_alu_res=0000000094363bd1
waiting for done signale from DUT
waiting for done signale from DUT
waiting for done signale from DUT
DUT signaled DONE!
result =           2492682765
TESTER: putting command: A: 00000005  B: d9c25b4b sv: 0 op_pf: 0 op: 02

UVM_INFO ./monitors/result_monitor.svh(31) @ 3270: uvm_test_top.env.result_monitor_h [result monitor] bfm done
UVM_ERROR ./components/scoreboard.svh(139) @ 3270: uvm_test_top.env.scoreboard_h [SELF CHECKER] FAIL: A: 0000000a  B: 94935207 sv: 0 op_pf: 0 op: 05 ==>  Actual result: 000000009493520d/Predicted result: ffffffff9493520d
waiting for done signale from DUT
waiting for done signale from DUT
waiting for done signale from DUT
waiting for done signale from DUT
waiting for done signale from DUT
waiting for done signale from DUT
DUT signaled DONE!
result =                    0
TESTER: putting command: A: 00000009  B: f7503c64 sv: 0 op_pf: 0 op: 05

UVM_INFO ./monitors/result_monitor.svh(31) @ 3430: uvm_test_top.env.result_monitor_h [result monitor] bfm done
UVM_INFO ./components/scoreboard.svh(141) @ 3430: uvm_test_top.env.scoreboard_h [SELF CHECKER] PASS: A: 00000009  B: 52e93645 sv: 0 op_pf: 1 op: 09 ==>  Actual result: 0000000000000000/Predicted result: 0000000000000000
waiting for done signale from DUT
waiting for done signale from DUT
waiting for done signale from DUT
waiting for done signale from DUT
waiting for done signale from DUT
waiting for done signale from DUT
DUT signaled DONE!
result =           2822632608
TESTER: putting command: A: 00000000  B: d45cc444 sv: 0 op_pf: 0 op: 03

UVM_INFO ./monitors/result_monitor.svh(31) @ 3590: uvm_test_top.env.result_monitor_h [result monitor] bfm done
UVM_ERROR ./components/scoreboard.svh(139) @ 3590: uvm_test_top.env.scoreboard_h [SELF CHECKER] FAIL: A: 00000001  B: 5ad64a99 sv: 0 op_pf: 1 op: 00 ==>  Actual result: 00000000a83df4a0/Predicted result: ffffffffa83df4a0
waiting for done signale from DUT
waiting for done signale from DUT
waiting for done signale from DUT
ecs_alu_op=02, edr_alu_A=00000005, edr_alu_B=d9c25b4b, idr_alu_res=000000009493520d
waiting for done signale from DUT
waiting for done signale from DUT
waiting for done signale from DUT
DUT signaled DONE!
result =          18266966135
TESTER: putting command: A: 00000005  B: a3d97dbf sv: 0 op_pf: 1 op: 07

UVM_INFO ./monitors/result_monitor.svh(31) @ 3750: uvm_test_top.env.result_monitor_h [result monitor] bfm done
UVM_ERROR ./components/scoreboard.svh(139) @ 3750: uvm_test_top.env.scoreboard_h [SELF CHECKER] FAIL: A: 00000005  B: d9c25b4b sv: 0 op_pf: 0 op: 02 ==>  Actual result: 0000000440cbc877/Predicted result: ffffffff40cbc877
waiting for done signale from DUT
waiting for done signale from DUT
waiting for done signale from DUT
ecs_alu_op=05, edr_alu_A=00000009, edr_alu_B=f7503c64, idr_alu_res=0000000440cbc877
waiting for done signale from DUT
waiting for done signale from DUT
waiting for done signale from DUT
DUT signaled DONE!
result =           4149230701
TESTER: putting command: A: 00000002  B: 0874e2e6 sv: 0 op_pf: 1 op: 08

UVM_INFO ./monitors/result_monitor.svh(31) @ 3910: uvm_test_top.env.result_monitor_h [result monitor] bfm done
UVM_ERROR ./components/scoreboard.svh(139) @ 3910: uvm_test_top.env.scoreboard_h [SELF CHECKER] FAIL: A: 00000009  B: f7503c64 sv: 0 op_pf: 0 op: 05 ==>  Actual result: 00000000f7503c6d/Predicted result: fffffffff7503c6d
waiting for done signale from DUT
waiting for done signale from DUT
waiting for done signale from DUT
ecs_alu_op=03, edr_alu_A=00000000, edr_alu_B=d45cc444, idr_alu_res=00000000f7503c6d
waiting for done signale from DUT
waiting for done signale from DUT
waiting for done signale from DUT
DUT signaled DONE!
result =                    0
TESTER: putting command: A: 00000006  B: 7f1a1bbb sv: 0 op_pf: 0 op: 03

UVM_INFO ./monitors/result_monitor.svh(31) @ 4070: uvm_test_top.env.result_monitor_h [result monitor] bfm done
UVM_INFO ./components/scoreboard.svh(141) @ 4070: uvm_test_top.env.scoreboard_h [SELF CHECKER] PASS: A: 00000000  B: d45cc444 sv: 0 op_pf: 0 op: 03 ==>  Actual result: 0000000000000000/Predicted result: 0000000000000000
waiting for done signale from DUT
waiting for done signale from DUT
waiting for done signale from DUT
waiting for done signale from DUT
waiting for done signale from DUT
waiting for done signale from DUT
DUT signaled DONE!
result =           2748939711
TESTER: putting command: A: 00000000  B: f01dfcbe sv: 0 op_pf: 0 op: 04

UVM_INFO ./monitors/result_monitor.svh(31) @ 4230: uvm_test_top.env.result_monitor_h [result monitor] bfm done
UVM_ERROR ./components/scoreboard.svh(139) @ 4230: uvm_test_top.env.scoreboard_h [SELF CHECKER] FAIL: A: 00000005  B: a3d97dbf sv: 0 op_pf: 1 op: 07 ==>  Actual result: 00000000a3d97dbf/Predicted result: 0000000000000000
waiting for done signale from DUT
waiting for done signale from DUT
waiting for done signale from DUT
waiting for done signale from DUT
waiting for done signale from DUT
waiting for done signale from DUT
DUT signaled DONE!
result =                    0
TESTER: putting command: A: 00000003  B: 8b6b2893 sv: 0 op_pf: 0 op: 04

UVM_INFO ./monitors/result_monitor.svh(31) @ 4390: uvm_test_top.env.result_monitor_h [result monitor] bfm done
UVM_INFO ./components/scoreboard.svh(141) @ 4390: uvm_test_top.env.scoreboard_h [SELF CHECKER] PASS: A: 00000002  B: 0874e2e6 sv: 0 op_pf: 1 op: 08 ==>  Actual result: 0000000000000000/Predicted result: 0000000000000000
waiting for done signale from DUT
waiting for done signale from DUT
waiting for done signale from DUT
ecs_alu_op=03, edr_alu_A=00000006, edr_alu_B=7f1a1bbb, idr_alu_res=0000000000000000
waiting for done signale from DUT
waiting for done signale from DUT
waiting for done signale from DUT
DUT signaled DONE!
result =                    2
TESTER: putting command: A: 00000002  B: 6954dd51 sv: 0 op_pf: 1 op: 06

UVM_INFO ./monitors/result_monitor.svh(31) @ 4550: uvm_test_top.env.result_monitor_h [result monitor] bfm done
UVM_INFO ./components/scoreboard.svh(141) @ 4550: uvm_test_top.env.scoreboard_h [SELF CHECKER] PASS: A: 00000006  B: 7f1a1bbb sv: 0 op_pf: 0 op: 03 ==>  Actual result: 0000000000000002/Predicted result: 0000000000000002
waiting for done signale from DUT
waiting for done signale from DUT
waiting for done signale from DUT
ecs_alu_op=04, edr_alu_A=00000000, edr_alu_B=f01dfcbe, idr_alu_res=0000000000000002
waiting for done signale from DUT
waiting for done signale from DUT
waiting for done signale from DUT
DUT signaled DONE!
result =           4028497086
TESTER: putting command: A: 00000006  B: f786aa3b sv: 0 op_pf: 1 op: 06

UVM_INFO ./monitors/result_monitor.svh(31) @ 4710: uvm_test_top.env.result_monitor_h [result monitor] bfm done
UVM_ERROR ./components/scoreboard.svh(139) @ 4710: uvm_test_top.env.scoreboard_h [SELF CHECKER] FAIL: A: 00000000  B: f01dfcbe sv: 0 op_pf: 0 op: 04 ==>  Actual result: 00000000f01dfcbe/Predicted result: fffffffff01dfcbe
waiting for done signale from DUT
waiting for done signale from DUT
waiting for done signale from DUT
ecs_alu_op=04, edr_alu_A=00000003, edr_alu_B=8b6b2893, idr_alu_res=00000000f01dfcbe
waiting for done signale from DUT
waiting for done signale from DUT
waiting for done signale from DUT
DUT signaled DONE!
result =           2339055763
TESTER: putting command: A: 00000002  B: 45f83c9a sv: 0 op_pf: 0 op: 02

UVM_INFO ./monitors/result_monitor.svh(31) @ 4870: uvm_test_top.env.result_monitor_h [result monitor] bfm done
UVM_ERROR ./components/scoreboard.svh(139) @ 4870: uvm_test_top.env.scoreboard_h [SELF CHECKER] FAIL: A: 00000003  B: 8b6b2893 sv: 0 op_pf: 0 op: 04 ==>  Actual result: 000000008b6b2893/Predicted result: ffffffff8b6b2893
waiting for done signale from DUT
waiting for done signale from DUT
waiting for done signale from DUT
waiting for done signale from DUT
waiting for done signale from DUT
waiting for done signale from DUT
DUT signaled DONE!
result =           2822632608
TESTER: putting command: A: 0000000a  B: bb6e2f3f sv: 0 op_pf: 0 op: 04

UVM_INFO ./monitors/result_monitor.svh(31) @ 5030: uvm_test_top.env.result_monitor_h [result monitor] bfm done
UVM_ERROR ./components/scoreboard.svh(139) @ 5030: uvm_test_top.env.scoreboard_h [SELF CHECKER] FAIL: A: 00000002  B: 6954dd51 sv: 0 op_pf: 1 op: 06 ==>  Actual result: 00000000a83df4a0/Predicted result: 0000000000000001
waiting for done signale from DUT
waiting for done signale from DUT
waiting for done signale from DUT
waiting for done signale from DUT
waiting for done signale from DUT
waiting for done signale from DUT
DUT signaled DONE!
result =           2822632608
TESTER: putting command: A: 00000004  B: e83ab4f8 sv: 0 op_pf: 0 op: 03

UVM_INFO ./monitors/result_monitor.svh(31) @ 5190: uvm_test_top.env.result_monitor_h [result monitor] bfm done
UVM_ERROR ./components/scoreboard.svh(139) @ 5190: uvm_test_top.env.scoreboard_h [SELF CHECKER] FAIL: A: 00000006  B: f786aa3b sv: 0 op_pf: 1 op: 06 ==>  Actual result: 00000000a83df4a0/Predicted result: 0000000000000001
waiting for done signale from DUT
waiting for done signale from DUT
waiting for done signale from DUT
ecs_alu_op=02, edr_alu_A=00000002, edr_alu_B=45f83c9a, idr_alu_res=000000008b6b2893
waiting for done signale from DUT
waiting for done signale from DUT
waiting for done signale from DUT
DUT signaled DONE!
result =           2347792692
TESTER: putting command: A: 00000003  B: 3849fec5 sv: 0 op_pf: 0 op: 04

UVM_INFO ./monitors/result_monitor.svh(31) @ 5350: uvm_test_top.env.result_monitor_h [result monitor] bfm done
UVM_INFO ./components/scoreboard.svh(141) @ 5350: uvm_test_top.env.scoreboard_h [SELF CHECKER] PASS: A: 00000002  B: 45f83c9a sv: 0 op_pf: 0 op: 02 ==>  Actual result: 000000008bf07934/Predicted result: 000000008bf07934
waiting for done signale from DUT
waiting for done signale from DUT
waiting for done signale from DUT
ecs_alu_op=04, edr_alu_A=0000000a, edr_alu_B=bb6e2f3f, idr_alu_res=000000008bf07934
waiting for done signale from DUT
waiting for done signale from DUT
waiting for done signale from DUT
DUT signaled DONE!
result =           3144560447
TESTER: putting command: A: 00000009  B: 204d866d sv: 0 op_pf: 0 op: 0a

UVM_INFO ./monitors/result_monitor.svh(31) @ 5510: uvm_test_top.env.result_monitor_h [result monitor] bfm done
UVM_ERROR ./components/scoreboard.svh(139) @ 5510: uvm_test_top.env.scoreboard_h [SELF CHECKER] FAIL: A: 0000000a  B: bb6e2f3f sv: 0 op_pf: 0 op: 04 ==>  Actual result: 00000000bb6e2f3f/Predicted result: ffffffffbb6e2f3f
waiting for done signale from DUT
waiting for done signale from DUT
waiting for done signale from DUT
ecs_alu_op=03, edr_alu_A=00000004, edr_alu_B=e83ab4f8, idr_alu_res=00000000bb6e2f3f
waiting for done signale from DUT
waiting for done signale from DUT
waiting for done signale from DUT
DUT signaled DONE!
result =                    0
TESTER: putting command: A: 00000005  B: 1a46f013 sv: 0 op_pf: 0 op: 05

UVM_INFO ./monitors/result_monitor.svh(31) @ 5670: uvm_test_top.env.result_monitor_h [result monitor] bfm done
UVM_INFO ./components/scoreboard.svh(141) @ 5670: uvm_test_top.env.scoreboard_h [SELF CHECKER] PASS: A: 00000004  B: e83ab4f8 sv: 0 op_pf: 0 op: 03 ==>  Actual result: 0000000000000000/Predicted result: 0000000000000000
waiting for done signale from DUT
waiting for done signale from DUT
waiting for done signale from DUT
ecs_alu_op=04, edr_alu_A=00000003, edr_alu_B=3849fec5, idr_alu_res=0000000000000000
waiting for done signale from DUT
waiting for done signale from DUT
waiting for done signale from DUT
DUT signaled DONE!
result =            944373447
TESTER: putting command: A: 00000003  B: 8f09b20c sv: 0 op_pf: 0 op: 0a

UVM_INFO ./monitors/result_monitor.svh(31) @ 5830: uvm_test_top.env.result_monitor_h [result monitor] bfm done
UVM_INFO ./components/scoreboard.svh(141) @ 5830: uvm_test_top.env.scoreboard_h [SELF CHECKER] PASS: A: 00000003  B: 3849fec5 sv: 0 op_pf: 0 op: 04 ==>  Actual result: 000000003849fec7/Predicted result: 000000003849fec7
waiting for done signale from DUT
waiting for done signale from DUT
waiting for done signale from DUT
waiting for done signale from DUT
waiting for done signale from DUT
waiting for done signale from DUT
DUT signaled DONE!
result =                    0
TESTER: putting command: A: 00000008  B: f876d746 sv: 0 op_pf: 1 op: 08

UVM_INFO ./monitors/result_monitor.svh(31) @ 5990: uvm_test_top.env.result_monitor_h [result monitor] bfm done
UVM_INFO ./components/scoreboard.svh(141) @ 5990: uvm_test_top.env.scoreboard_h [SELF CHECKER] PASS: A: 00000009  B: 204d866d sv: 0 op_pf: 0 op: 0a ==>  Actual result: 0000000000000000/Predicted result: 0000000000000000
waiting for done signale from DUT
waiting for done signale from DUT
waiting for done signale from DUT
ecs_alu_op=05, edr_alu_A=00000005, edr_alu_B=1a46f013, idr_alu_res=000000003849fec7
waiting for done signale from DUT
waiting for done signale from DUT
waiting for done signale from DUT
DUT signaled DONE!
result =            440856598
TESTER: putting command: A: 00000003  B: 6d1df258 sv: 0 op_pf: 1 op: 07

UVM_INFO ./monitors/result_monitor.svh(31) @ 6150: uvm_test_top.env.result_monitor_h [result monitor] bfm done
UVM_INFO ./components/scoreboard.svh(141) @ 6150: uvm_test_top.env.scoreboard_h [SELF CHECKER] PASS: A: 00000005  B: 1a46f013 sv: 0 op_pf: 0 op: 05 ==>  Actual result: 000000001a46f016/Predicted result: 000000001a46f016
waiting for done signale from DUT
waiting for done signale from DUT
waiting for done signale from DUT
waiting for done signale from DUT
waiting for done signale from DUT
waiting for done signale from DUT
DUT signaled DONE!
result =                    0
TESTER: putting command: A: 00000003  B: 136b25ac sv: 1 op_pf: 1 op: 06

UVM_INFO ./monitors/result_monitor.svh(31) @ 6310: uvm_test_top.env.result_monitor_h [result monitor] bfm done
UVM_INFO ./components/scoreboard.svh(141) @ 6310: uvm_test_top.env.scoreboard_h [SELF CHECKER] PASS: A: 00000003  B: 8f09b20c sv: 0 op_pf: 0 op: 0a ==>  Actual result: 0000000000000000/Predicted result: 0000000000000000
waiting for done signale from DUT
waiting for done signale from DUT
waiting for done signale from DUT
waiting for done signale from DUT
waiting for done signale from DUT
waiting for done signale from DUT
DUT signaled DONE!
result =                    0
TESTER: putting command: A: 00000000  B: 1fca5c29 sv: 0 op_pf: 1 op: 08

UVM_INFO ./monitors/result_monitor.svh(31) @ 6470: uvm_test_top.env.result_monitor_h [result monitor] bfm done
UVM_INFO ./components/scoreboard.svh(141) @ 6470: uvm_test_top.env.scoreboard_h [SELF CHECKER] PASS: A: 00000008  B: f876d746 sv: 0 op_pf: 1 op: 08 ==>  Actual result: 0000000000000000/Predicted result: 0000000000000000
waiting for done signale from DUT
waiting for done signale from DUT
waiting for done signale from DUT
waiting for done signale from DUT
waiting for done signale from DUT
waiting for done signale from DUT
DUT signaled DONE!
result =           1830679128
TESTER: putting command: A: 00000009  B: 9010b8c7 sv: 0 op_pf: 0 op: 05

UVM_INFO ./monitors/result_monitor.svh(31) @ 6630: uvm_test_top.env.result_monitor_h [result monitor] bfm done
UVM_ERROR ./components/scoreboard.svh(139) @ 6630: uvm_test_top.env.scoreboard_h [SELF CHECKER] FAIL: A: 00000003  B: 6d1df258 sv: 0 op_pf: 1 op: 07 ==>  Actual result: 000000006d1df258/Predicted result: 0000000000000000
waiting for done signale from DUT
waiting for done signale from DUT
